Differential Analysis of 5xFAD mouse models
…
ind_meta <- read_csv("files/Jax.IU.Pitt_5XFAD_individual_metadata.csv", show_col_types = FALSE)

Join the three metadata files by IDs in common

#join the metadata files
joined_meta <- rna_meta %>% #start with the rnaseq assay metadata
  left_join(bio_meta, by = "specimenID") %>%  #join rows from biospecimen that match specimenID 
  left_join(ind_meta, by = "individualID") # join rows from individual that match individualID

joined_meta

# A tibble: 72 × 56
   speci…¹ platf…² RIN   rnaBa…³ libra…⁴ seque…⁵ libra…⁶ libra…⁷ isStr…⁸ readS…⁹
   <chr>   <chr>   <lgl>   <dbl>   <dbl>   <dbl> <chr>   <lgl>   <lgl>   <lgl>  
 1 32043rh Illumi… NA          1       1       1 polyAs… NA      FALSE   NA     
 2 32044rh Illumi… NA          1       1       1 polyAs… NA      FALSE   NA     
 3 32046rh Illumi… NA          1       1       1 polyAs… NA      FALSE   NA     
 4 32047rh Illumi… NA          1       1       1 polyAs… NA      FALSE   NA     
 5 32049rh Illumi… NA          1       1       1 polyAs… NA      FALSE   NA     
 6 32057rh Illumi… NA          1       1       1 polyAs… NA      FALSE   NA     
 7 32061rh Illumi… NA          1       1       1 polyAs… NA      FALSE   NA     
 8 32065rh Illumi… NA          1       1       1 polyAs… NA      FALSE   NA     
 9 32067rh Illumi… NA          1       1       1 polyAs… NA      FALSE   NA     
10 32070rh Illumi… NA          1       1       1 polyAs… NA      FALSE   NA     
# … with 62 more rows, 46 more variables: runType <chr>, readLength <dbl>,
#   individualID <dbl>, specimenIdSource <chr>, organ <chr>, tissue <chr>,
#   BrodmannArea <lgl>, sampleStatus <chr>, tissueWeight <lgl>,
#   tissueVolume <lgl>, nucleicAcidSource <lgl>, cellType <lgl>,
#   fastingState <lgl>, isPostMortem <lgl>, samplingAge <lgl>,
#   individualIdSource <chr>, species <chr>, sex <chr>, genotype <chr>,
#   genotypeBackground <chr>, room <chr>, litter <chr>, matingID <chr>, …
…
